^C:\USERS\7CHRI\DOCUMENTS\SCHOOL\CS5700\ASSN4\SUDOKU_SOLVER\SUDOKU_SOLVER\BACKTRACKSOLVER.CPP
/c /ZI /JMC /nologo /W3 /WX- /diagnostics:classic /sdl /Od /Oy- /D _MBCS /Gm- /EHsc /RTC1 /MDd /GS /fp:precise /permissive- /Zc:wchar_t /Zc:forScope /Zc:inline /Fo"DEBUG\\" /Fd"DEBUG\VC141.PDB" /Gd /TP /analyze- /FC C:\USERS\7CHRI\DOCUMENTS\SCHOOL\CS5700\ASSN4\SUDOKU_SOLVER\SUDOKU_SOLVER\BACKTRACKSOLVER.CPP
^C:\USERS\7CHRI\DOCUMENTS\SCHOOL\CS5700\ASSN4\SUDOKU_SOLVER\SUDOKU_SOLVER\CELL.CPP
/c /ZI /JMC /nologo /W3 /WX- /diagnostics:classic /sdl /Od /Oy- /D _MBCS /Gm- /EHsc /RTC1 /MDd /GS /fp:precise /permissive- /Zc:wchar_t /Zc:forScope /Zc:inline /Fo"DEBUG\\" /Fd"DEBUG\VC141.PDB" /Gd /TP /analyze- /FC C:\USERS\7CHRI\DOCUMENTS\SCHOOL\CS5700\ASSN4\SUDOKU_SOLVER\SUDOKU_SOLVER\CELL.CPP
^C:\USERS\7CHRI\DOCUMENTS\SCHOOL\CS5700\ASSN4\SUDOKU_SOLVER\SUDOKU_SOLVER\MAIN.CPP
/c /ZI /JMC /nologo /W3 /WX- /diagnostics:classic /sdl /Od /Oy- /D _MBCS /Gm- /EHsc /RTC1 /MDd /GS /fp:precise /permissive- /Zc:wchar_t /Zc:forScope /Zc:inline /Fo"DEBUG\\" /Fd"DEBUG\VC141.PDB" /Gd /TP /analyze- /FC C:\USERS\7CHRI\DOCUMENTS\SCHOOL\CS5700\ASSN4\SUDOKU_SOLVER\SUDOKU_SOLVER\MAIN.CPP
^C:\USERS\7CHRI\DOCUMENTS\SCHOOL\CS5700\ASSN4\SUDOKU_SOLVER\SUDOKU_SOLVER\PUZZLE.CPP
/c /ZI /JMC /nologo /W3 /WX- /diagnostics:classic /sdl /Od /Oy- /D _MBCS /Gm- /EHsc /RTC1 /MDd /GS /fp:precise /permissive- /Zc:wchar_t /Zc:forScope /Zc:inline /Fo"DEBUG\\" /Fd"DEBUG\VC141.PDB" /Gd /TP /analyze- /FC C:\USERS\7CHRI\DOCUMENTS\SCHOOL\CS5700\ASSN4\SUDOKU_SOLVER\SUDOKU_SOLVER\PUZZLE.CPP
^C:\USERS\7CHRI\DOCUMENTS\SCHOOL\CS5700\ASSN4\SUDOKU_SOLVER\SUDOKU_SOLVER\ROWCOLBLOCKSOLVER.CPP
/c /ZI /JMC /nologo /W3 /WX- /diagnostics:classic /sdl /Od /Oy- /D _MBCS /Gm- /EHsc /RTC1 /MDd /GS /fp:precise /permissive- /Zc:wchar_t /Zc:forScope /Zc:inline /Fo"DEBUG\\" /Fd"DEBUG\VC141.PDB" /Gd /TP /analyze- /FC C:\USERS\7CHRI\DOCUMENTS\SCHOOL\CS5700\ASSN4\SUDOKU_SOLVER\SUDOKU_SOLVER\ROWCOLBLOCKSOLVER.CPP
^C:\USERS\7CHRI\DOCUMENTS\SCHOOL\CS5700\ASSN4\SUDOKU_SOLVER\SUDOKU_SOLVER\SHAVESOLVER.CPP
/c /ZI /JMC /nologo /W3 /WX- /diagnostics:classic /sdl /Od /Oy- /D _MBCS /Gm- /EHsc /RTC1 /MDd /GS /fp:precise /permissive- /Zc:wchar_t /Zc:forScope /Zc:inline /Fo"DEBUG\\" /Fd"DEBUG\VC141.PDB" /Gd /TP /analyze- /FC C:\USERS\7CHRI\DOCUMENTS\SCHOOL\CS5700\ASSN4\SUDOKU_SOLVER\SUDOKU_SOLVER\SHAVESOLVER.CPP
^C:\USERS\7CHRI\DOCUMENTS\SCHOOL\CS5700\ASSN4\SUDOKU_SOLVER\SUDOKU_SOLVER\SOLVER.CPP
/c /ZI /JMC /nologo /W3 /WX- /diagnostics:classic /sdl /Od /Oy- /D _MBCS /Gm- /EHsc /RTC1 /MDd /GS /fp:precise /permissive- /Zc:wchar_t /Zc:forScope /Zc:inline /Fo"DEBUG\\" /Fd"DEBUG\VC141.PDB" /Gd /TP /analyze- /FC C:\USERS\7CHRI\DOCUMENTS\SCHOOL\CS5700\ASSN4\SUDOKU_SOLVER\SUDOKU_SOLVER\SOLVER.CPP
^C:\USERS\7CHRI\DOCUMENTS\SCHOOL\CS5700\ASSN4\SUDOKU_SOLVER\SUDOKU_SOLVER\TIMER.CPP
/c /ZI /JMC /nologo /W3 /WX- /diagnostics:classic /sdl /Od /Oy- /D _MBCS /Gm- /EHsc /RTC1 /MDd /GS /fp:precise /permissive- /Zc:wchar_t /Zc:forScope /Zc:inline /Fo"DEBUG\\" /Fd"DEBUG\VC141.PDB" /Gd /TP /analyze- /FC C:\USERS\7CHRI\DOCUMENTS\SCHOOL\CS5700\ASSN4\SUDOKU_SOLVER\SUDOKU_SOLVER\TIMER.CPP
^C:\USERS\7CHRI\DOCUMENTS\SCHOOL\CS5700\ASSN4\SUDOKU_SOLVER\SUDOKU_SOLVER\UI.CPP
/c /ZI /JMC /nologo /W3 /WX- /diagnostics:classic /sdl /Od /Oy- /D _MBCS /Gm- /EHsc /RTC1 /MDd /GS /fp:precise /permissive- /Zc:wchar_t /Zc:forScope /Zc:inline /Fo"DEBUG\\" /Fd"DEBUG\VC141.PDB" /Gd /TP /analyze- /FC C:\USERS\7CHRI\DOCUMENTS\SCHOOL\CS5700\ASSN4\SUDOKU_SOLVER\SUDOKU_SOLVER\UI.CPP
